[gd_scene load_steps=4 format=2]

[ext_resource path="res://Assets/Sprites/Effects/explosion1.png" type="Texture" id=1]
[ext_resource path="res://Scripts/LaserPowerup.gd" type="Script" id=2]

[sub_resource type="CircleShape2D" id=1]
radius = 40.1747

[node name="LaserPowerup" type="Area2D"]
script = ExtResource( 2 )

[node name="Sprite" type="Sprite" parent="."]
texture = ExtResource( 1 )

[node name="CollisionShape2D" type="CollisionShape2D" parent="."]
shape = SubResource( 1 )

[node name="Timer" type="Timer" parent="."]
wait_time = 14.0
autostart = true

[connection signal="body_entered" from="." to="." method="_on_LaserPowerup_body_entered"]
[connection signal="timeout" from="Timer" to="." method="_on_Timer_timeout"]
