[gd_scene load_steps=4 format=2]

[ext_resource path="res://Scripts/MissilePowerup.gd" type="Script" id=1]
[ext_resource path="res://Assets/Sprites/missile.png" type="Texture" id=2]

[sub_resource type="RectangleShape2D" id=1]
extents = Vector2( 35.6971, 70.8355 )

[node name="MissilePowerup" type="Area2D"]
gravity = 3.0
script = ExtResource( 1 )

[node name="Sprite" type="Sprite" parent="."]
scale = Vector2( 0.15, 0.15 )
texture = ExtResource( 2 )

[node name="CollisionShape2D" type="CollisionShape2D" parent="."]
scale = Vector2( 1, 0.893147 )
shape = SubResource( 1 )

[node name="DespawnTimer" type="Timer" parent="."]
wait_time = 14.0
autostart = true

[connection signal="body_entered" from="." to="." method="_on_MissilePowerup_body_entered"]
[connection signal="timeout" from="DespawnTimer" to="." method="_on_DespawnTimer_timeout"]
